{"questions":[{
  "question": "From the following statements which is a disadvantage of an java array? ",
  "choiceA": "An array can hold primitive types data",
  "choiceB": "An array has its size that is known as array length",
  "choiceC": "An array knows only its type that it contains. Array type is checked at the compile-time",
  "choiceD": "An array holds only one type of data",
  "answer": "An array holds only one type of data",
  "qtype": "beginner",
  "question_Id":"1"
},{
  "question": "Switch is more efficient than nested if or if - else in java. ",
  "choiceA": "True",
  "choiceB": "False",
  "choiceC": " ",
  "choiceD": " ",
  "answer": "True",
  "qtype": "beginner",
  "question_Id":"2"
},{
  "question": " Which statement provides an easy way to dispatch execution to different parts of your code based on the value of an expression? ",
  "choiceA": "If",
  "choiceB": "Switch",
  "choiceC": "Nested-if",
  "choiceD": "if-else-if",
  "answer": "Switch",
  "qtype": "beginner",
  "question_Id":"3"
},{
  "question": "Which provides accessibility to classes and interface? ",
  "choiceA": "import",
  "choiceB": "Static import",
  "choiceC": "Extends",
  "choiceD": "All the above",
  "answer": "import",
  "qtype": "beginner",
  "question_Id":"4"
},{
  "question": "Which access specifiers can be used for a class so that it’s members can be accessed by a different class in the different package? ",
  "choiceA": "Private",
  "choiceB": "Public",
  "choiceC": "Protected",
  "choiceD": "None of the above",
  "answer": "Public",
  "qtype": "beginner",
  "question_Id":"5"
},{
  "question": "What can be accessed or inherited without actual copy of code to each program? ",
  "choiceA": "Browser",
  "choiceB": "Applet",
  "choiceC": "Package",
  "choiceD": "None of the above",
  "answer": "Package",
  "qtype": "beginner",
  "question_Id":"6"
},{
  "question": "Which keyword is used to make the classes and interface of another package accessible to the current package?",
  "choiceA": "Import",
  "choiceB": "Implements",
  "choiceC": "Instanceof",
  "choiceD": "extends",
  "answer": "Import",
  "qtype": "beginner",
  "question_Id":"7"
},{
  "question": "Which is a mechanism where one object acquires all the properties and behaviors of the parent object? ",
  "choiceA": "Inheritance",
  "choiceB": "Encapsulation",
  "choiceC": "Polymorphism",
  "choiceD": "None of the above",
  "answer": "Inheritance",
  "qtype": "beginner",
  "question_Id":"8"
},{
  "question": "Which package includes all the standard classes of java?",
  "choiceA": "java.lang",
  "choiceB": "java.math",
  "choiceC": "java.ref",
  "choiceD": "java.util",
  "answer": "java.lang",
  "qtype": "beginner",
  "question_Id":"9"
},{
  "question": "JVM stands for? ",
  "choiceA": "Java Very Large Machine",
  "choiceB": "Java Verified Machine",
  "choiceC": "Java Very Small Machine",
  "choiceD": "Java Virtual Machine",
  "answer": "Java Virtual Machine",
  "qtype": "beginner",
  "question_Id":"10"
},{
  "question": "Who is also called father of Java Programming Language? ",
  "choiceA": "James Gosling",
  "choiceB": "Ken Thompson",
  "choiceC": "Dennis Richie",
  "choiceD": "None of the above",
  "answer": "James Gosling",
  "qtype": "beginner",
  "question_Id":"11"
},{
  "question": " Can we start a thread twice?",
  "choiceA": "Yes",
  "choiceB": "No",
  "choiceC": " ",
  "choiceD": " ",
  "answer": "No",
  "qtype": "beginner",
  "question_Id":"12"
},{
  "question": "Which block contains a block of program statements where an exception might occur? ",
  "choiceA": "Catch",
  "choiceB": "try",
  "choiceC": "throw",
  "choiceD": "final",
  "answer": "try",
  "qtype": "beginner",
  "question_Id":"13"
},{
  "question": "Generally string is a sequence of characters, But in java, string is an _______.",
  "choiceA": "Object",
  "choiceB": "Class",
  "choiceC": "Package",
  "choiceD": "None of the above",
  "answer": "Object",
  "qtype": "beginner",
  "question_Id":"14"
},{
  "question": "Which is nothing but a blueprint or a template for creating different objects which defines its properties and behaviours? ",
  "choiceA": "An Array",
  "choiceB": "A class",
  "choiceC": "Interface",
  "choiceD": "None of the above",
  "answer": "A Class",
  "qtype": "beginner",
  "question_Id":"15"
},{
  "question": "Find whether these two rules are correct or not defined by the constructor 1. Constructor name must be same as its class name. 2. Constructor must have no explicit return type. ",
  "choiceA": "True",
  "choiceB": "False",
  "choiceC": " ",
  "choiceD": " ",
  "answer": "True",
  "qtype": "beginner",
  "question_Id":"16"
},{
  "question": "Which class cannot be instantiated? ",
  "choiceA": "Abstract Class",
  "choiceB": "Static Class",
  "choiceC": "Both A & B",
  "choiceD": "None of the above",
  "answer": "Abstract Class",
  "qtype": "beginner",
  "question_Id":"17"
},{
  "question": "If a class has multiple methods by same name but different parameters, it is known as? ",
  "choiceA": "Constructor overloading",
  "choiceB": "Method overloading",
  "choiceC": "Operator overloading",
  "choiceD": "All of Above",
  "answer": "Method overloading",
  "qtype": "beginner",
  "question_Id":"18"
}, {
  "question": " Which is a non-static method having the same name as its class? ",
  "choiceA": "Field",
  "choiceB": "Method",
  "choiceC": "Constructor",
  "choiceD": "None of the above",
  "answer": "Constructor",
  "qtype": "beginner",
  "question_Id":"19"
},{
  "question": "Which is irrecoverable? ",
  "choiceA": "Error",
  "choiceB": "Checked Exception",
  "choiceC": "Unchecked Exception",
  "choiceD": "Both B & C",
  "answer": "Error",
  "qtype": "beginner",
  "question_Id":"20"
}
,{
    "question": "Unchecked exceptions are checked at compile-time rather they are checked at runtime.",
    "choiceA": "True",
    "choiceB": "False",
    "choiceC": " ",
    "choiceD": " ",
    "answer": "False",
    "qtype": "intermediate",
    "question_Id":"21"
  }
,{
    "question": "Which method returns the interrupted flag after that it sets the flag to false if it is true? ",
    "choiceA": "isInterrupted()",
    "choiceB": "static interrupted()",
    "choiceC": "non static interrupted()",
    "choiceD": "Both A & C",
    "answer": "static interrupted()",
    "qtype": "intermediate",
    "question_Id":"22"
  }
,{
    "question": "The following Syntax is used for?class Subclass-name extends Superclass-name {//methods and fields}",
    "choiceA": "Polymorphism",
    "choiceB": "Encapsulation",
    "choiceC": "Inheritance",
    "choiceD": "None of the above",
    "answer": "Inheritance",
    "qtype": "intermediate",
    "question_Id":"23"
  }
,{
    "question": "How many reserved keywords are currently defined in the Java language?",
    "choiceA": "48",
    "choiceB": "49",
    "choiceC": "50",
    "choiceD": "47",
    "answer": "49",
    "qtype": "intermediate",
    "question_Id":"24"
  }
,{
    "question": "Which mechanism is used when a thread is paused running in its critical section and another thread is allowed to enter (or lock) in the same critical section to be executed? ",
    "choiceA": "Inter-thread communication",
    "choiceB": "Initial-thread communication",
    "choiceC": "Mutual Exclusive",
    "choiceD": "None of the above",
    "answer": "Inter-thread communication",
    "qtype": "intermediate",
    "question_Id":"25"
  }
,{
    "question": "Which method is used to change the name of a thread?",
    "choiceA": "public String getName()",
    "choiceB": "public void setName(String name)",
    "choiceC": "public void getName()",
    "choiceD": "public String setName(String name)",
    "answer": "public void setName(String name)",
    "qtype": "intermediate",
    "question_Id":"26"
  }
,{
    "question": "Which is used for reading streams of raw bytes such as image data and for reading streams of characters, consider using FileReader?",
    "choiceA": "FileInputStream",
    "choiceB": "FileOutputStream",
    "choiceC": "Both A & B",
    "choiceD": "None of the above",
    "answer": "FileInputStream",
    "qtype": "intermediate",
    "question_Id":"27"
  }
,{
    "question": "An exception is an event, which occurs during the execution of a program that disrupts the normal flow of the program's instructions.",
    "choiceA": "True",
    "choiceB": "False",
    "choiceC": " ",
    "choiceD": " ",
    "answer": "True",
    "qtype": "intermediate",
    "question_Id":"28"
  }
,{
    "question": "Mutual exclusive and inter-thread communication are which type of Synchorization?",
    "choiceA": "Thread Synchronization",
    "choiceB": "Process Synchronization",
    "choiceC": "Object Synchronization",
    "choiceD": "None of the above",
    "answer": "Thread Synchronization",
    "qtype": "intermediate",
    "question_Id":"29"
  }
,{
    "question": "Java application uses an output stream to read data from a source, it may be a file, an array, peripheral device or socket.",
    "choiceA": "True",
    "choiceB": "False",
    "choiceC": " ",
    "choiceD": " ",
    "answer": "False",
    "qtype": "intermediate",
    "question_Id":"30"
  }
,{
    "question": "What is known as the classes that extend Throwable class except RuntimeException and Error?",
    "choiceA": "Checked Exception",
    "choiceB": "Unchecked Exception",
    "choiceC": "Error",
    "choiceD": "None of the above",
    "answer": "Checked Exception",
    "qtype": "intermediate",
    "question_Id":"31"
  }
,{
    "question": "A package can be renamed without renaming the directory in which the classes are stored.",
    "choiceA": "True",
    "choiceB": "False",
    "choiceC": " ",
    "choiceD": " ",
    "answer": "False",
    "qtype": "intermediate",
    "question_Id":"32"
  }
,{
    "question": "Daemon thread provides services to user threads for background supporting tasks,It has no role in life than to serve user threads.",
    "choiceA": "True",
    "choiceB": "False",
    "choiceC": " ",
    "choiceD": " ",
    "answer": "True",
    "qtype": "intermediate",
    "question_Id":"33"
  }
,{
    "question": "Which methods are provided by the PrintStream class?",
    "choiceA": "Read data to another stream",
    "choiceB": "Write data to another stream",
    "choiceC": "Read data to same stream",
    "choiceD": "Write data to same stream",
    "answer": "Write data to another stream",
    "qtype": "intermediate",
    "question_Id":"34"
  }
,{
    "question": "Which Exception occurs when a class is not found while dynamically loading a class using the class loaders?",
    "choiceA": "ClassNotFoundException",
    "choiceB": "ClassFoundException",
    "choiceC": "NoClassDefFoundError",
    "choiceD": "ClassDefFoundError",
    "answer": "ClassNotFoundExceptio",
    "qtype": "intermediate",
    "question_Id":"35"
  }
,{
    "question": "By overriding the toString() method of the Object class, we can return values of the object, so we don't need to write much code.",
    "choiceA": "True",
    "choiceB": "False",
    "choiceC": " ",
    "choiceD": " ",
    "answer": "True",
    "qtype": "intermediate",
    "question_Id":"36"
  }
,{
    "question": "Which method of string class in java is used to convert the boolean into String?",
    "choiceA": "public static String valueOf(double I)",
    "choiceB": "public static String valueOf(boolean I)",
    "choiceC": "public boolean equals(Object anObject)",
    "choiceD": "public static String valueOf(Object obj)",
    "answer": "public static String valueOf(double I)",
    "qtype": "intermediate",
    "question_Id":"37"
  }
,{
    "question": "Classes in the same package cannot access each other's package-access members.",
    "choiceA": "True",
    "choiceB": "False",
    "choiceC": " ",
    "choiceD": " ",
    "answer": "False",
    "qtype": "intermediate",
    "question_Id":"38"
  }
,{
    "question": "Which is used to separate the hierarchy of the class while declaring an import statement? ",
    "choiceA": "Package",
    "choiceB": "Applet",
    "choiceC": "Browser",
    "choiceD": "All of the above",
    "answer": "Package",
    "qtype": "intermediate",
    "question_Id":"39"
  }
,{
    "question": "Which Thread pool is used where container creates a thread pool to process the request?",
    "choiceA": "Servlet",
    "choiceB": "JSp",
    "choiceC": "All of the above",
    "choiceD": "None of the above",
    "answer": "All of the above",
    "qtype": "intermediate",
    "question_Id":"40"
  }
,{
    "question": "When the ejbRemove method encounters a sysyem problem ,it should throw_________",
    "choiceA": "javax.ejb.NoSuchEntityException",
    "choiceB": "java.ejb.EJBException",
    "choiceC": "java.ejb.RemoveException",
    "choiceD": "javax.ejb.DuplicateKeyException ",
    "answer": "java.ejb.EJBException",
    "qtype": "advanced",
    "question_Id":"41"
  }
,{
    "question": "___________ is a block of java code in JSP that is used define class-wide variables and methods in the generated class file",
    "choiceA": "scriplets ",
    "choiceB": "declarations",
    "choiceC": "element",
    "choiceD": "expression",
    "answer": " declarations",
    "qtype": "advanced",
    "question_Id":"42"
  }
,{
    "question": "Which of the following is not an implicit object ?",
    "choiceA": "date",
    "choiceB": "request",
    "choiceC": "out",
    "choiceD": "pagecontext",
    "answer": "date",
    "qtype": "advanced",
    "question_Id":"43"
  }
,{
    "question": "An Enterprise JavaBeans can be deployed in _______",
    "choiceA": "J2EE server",
    "choiceB": "Weblogic",
    "choiceC": "Web sphere",
    "choiceD": "All of the above",
    "answer": "All of the above",
    "qtype": "advanced",
    "question_Id":"44"
  }
,{
    "question": "Mapping files (*.hbm.xml) is used __________",
    "choiceA": "to map persistent objects to a relational database",
    "choiceB": "to configure the hibernate services (connection driver class, connection URL)",
    "choiceC": "to configure the hibernate services (connection username, connection password, dialect etc)",
    "choiceD": "All of the above",
    "answer": "to map persistent objects to a relational database",
    "qtype": "advanced",
    "question_Id":"45"
  }
,{
    "question": "Consider the following HTML page code: < html > < body > < a href='/servlet/HelloServlet' >POST< /a > < /body >< /html > Which method of HelloServIet will be invoked when the hyperlink is clicked?",
    "choiceA": "doGet",
    "choiceB": "doPost",
    "choiceC": "doHref",
    "choiceD": "servicePost",
    "answer": "doGet",
    "qtype": "advanced",
    "question_Id":"46"
  }
,{
    "question": "Which of the following lines would you use to include the output of Data- Servlett into any other serviet",
    "choiceA": "RequestDispatcher rd=request. getRequestDispatcher( '/Bervlet/DataServlet'); rd.include(request, response)",
    "choiceB": "RequestDispatcher rd = request .getRequest:Dispatcher( '/servlet/DataSel•vlet')",
    "choiceC": "RequestDispatcher rd = request.geCRequestDispatcher(); rd.inelude('/servIet/DataServIet',reguest,response);",
    "choiceD": "RequestDispatcher rd = request.getRequestDispatcher(); rd. include ('/servlet/Dataservlet' ,response)",
    "answer": "RequestDispatcher rd=request. getRequestDispatcher( '/Bervlet/DataServlet'); rd.include(request, response)",
    "qtype": "advanced",
    "question_Id":"47"
  }
,{
    "question": "To determine the behaviour of the beans in an application , we make use of",
    "choiceA": "Java.beans.SimpleBeanInfo",
    "choiceB": "Java.beans.Introspector",
    "choiceC": "Java.awt.*",
    "choiceD": "None of the above",
    "answer": "Java.beans.Introspector",
    "qtype": "advanced",
    "question_Id":"48"
  }
,{
    "question": "Which of the elements defined within the taglib element of taglib descriptor file are required",
    "choiceA": "uri",
    "choiceB": "jsp-version",
    "choiceC": "display-name",
    "choiceD": "None",
    "answer": "jsp-version",
    "qtype": "advanced",
    "question_Id":"49"
  }
,{
    "question": "Name the element within the tag element that defines the tag class that implements the functionality of tag",
    "choiceA": "tag",
    "choiceB": "tag-class",
    "choiceC": "tag-name",
    "choiceD": "tag-uri",
    "answer": "tag-class",
    "qtype": "advanced",
    "question_Id":"50"
  }
,{
    "question": "__________ provides the ability to directly insert java into an HTML document",
    "choiceA": "declarations",
    "choiceB": "scriptlets",
    "choiceC": "directives",
    "choiceD": "None of the above",
    "answer": "scriptlets",
    "qtype": "advanced",
    "question_Id":"51"
  }
,{
    "question": "___________ pattern enables improved network traffic and response time. Fewer remote calls are made and less data is passed back and forth",
    "choiceA": "Value Objects",
    "choiceB": "Data Access Objects",
    "choiceC": "Facade",
    "choiceD": "Business Delegate",
    "answer": "Value Objects",
    "qtype": "advanced",
    "question_Id":"52"
  }
,{
    "question": "Which of the following of beans would survive a server crash",
    "choiceA": "Entity beans",
    "choiceB": "Stateless session beans",
    "choiceC": "Stateful session beans",
    "choiceD": "Message-driven beans",
    "answer": "Entity beans",
    "qtype": "advanced",
    "question_Id":"53"
  }
,{
    "question": "Which of the following statements are true about locating or using the home interface of a session bean",
    "choiceA": "Once acquired, the home interface can be used only once",
    "choiceB": "Each instance of a session bean has its own EJBHome object",
    "choiceC": "The InitialContext must be narrowed before it can be used to get the home interface",
    "choiceD": "None of the above",
    "answer": "None of the above",
    "qtype": "advanced",
    "question_Id":"54"
  }
,{
    "question": "Which of the following statements are correct about a session bean whose class contains the following method? public void ejbCreate (String id)",
    "choiceA": "It is a Stateless session bean",
    "choiceB": "The home interface of the bean has the method create (String id) declared in it ",
    "choiceC": "The component interface ofthe bean has the method ejbCreate (String id) declared in it",
    "choiceD": "None of the above",
    "answer": "The home interface of the bean has the method create (String id) declared in it.",
    "qtype": "advanced",
    "question_Id":"55"
  }
,{
    "question": "What are valid methods for HttpSessionListener interface",
    "choiceA": "sessionRemoved",
    "choiceB": "sessionDestroyed",
    "choiceC": "sessionReCreated",
    "choiceD": "sessionReplaced",
    "answer": "sessionDestroyed",
    "qtype": "advanced",
    "question_Id":"56"
  }
,{
    "question": "Sites using HTTPS that is HTTP plus SSL(Secure Sockets Layer ) can be identified by",
    "choiceA": "There is no way one can detect that site uses HTTPS protocol",
    "choiceB": "The URL of the website begins with https: instead of http",
    "choiceC": "The URL of the website begins with ssl: instead of http",
    "choiceD": "The URL of the website begins with shttp",
    "answer": "The URL of the website begins with https: instead of http",
    "qtype": "advanced",
    "question_Id":"57"
  }
,{
    "question": "An object which implements the interfaces java.rmi.Remote and java.io.Serializable is being sent as a method parameter from one JVM to another. How would it be sent by RMI?",
    "choiceA": "RMI will serialize the object and send it",
    "choiceB": "RMI will send the stub of the object",
    "choiceC": "Either A or B Throws an exception",
    "choiceD": "None",
    "answer": "RMI will send the stub of the object",
    "qtype": "advanced",
    "question_Id":"58"
  }
,{
    "question": "In the JMS, message producers and message consumers are created by which of the following objects?",
    "choiceA": "Connection Factories",
    "choiceB": "Message Listeners",
    "choiceC": "Connections",
    "choiceD": "Sessions",
    "answer": "Sessions",
    "qtype": "advanced",
    "question_Id":"59"
  }
,{
    "question": "To author a Session bean which of the following classes are needed?",
    "choiceA": "A Home interface, A Remote Interface, a class that implements Enterprisebean interface and a PrimaryKey class",
    "choiceB": "A Home interface, A Remote Interface and a class that implements the SessionBean interface",
    "choiceC": "A Remote Interface and a class that implements the SessionBean interface",
    "choiceD": "A Home interface, A Remote Interface and a class that implements the EnterpriseBean interface",
    "answer": "A Home interface, A Remote Interface and a class that implements the SessionBean interface",
    "qtype": "advanced",
    "question_Id":"60"
  }
]
}